{"tracks":{"href":"https://api.spotify.com/v1/search?query=track%3Abilly&type=track&offset=0&limit=10","items":[{"album":{"album_type":"album","artists":[{"external_urls":{"spotify":"https://open.spotify.com/artist/7gZfnEnfiaHzxARJ2LeXrf"},"href":"https://api.spotify.com/v1/artists/7gZfnEnfiaHzxARJ2LeXrf","id":"7gZfnEnfiaHzxARJ2LeXrf","name":"6ix9ine","type":"artist","uri":"spotify:artist:7gZfnEnfiaHzxARJ2LeXrf"}],"available_markets":["AD","AE","AL","AR","AT","AU","BA","BE","BG","BH","BO","BR","BY","CA","CH","CL","CO","CR","CY","CZ","DE","DK","DO","DZ","EC","EE","EG","ES","FI","FR","GB","GR","GT","HK","HN","HR","HU","ID","IE","IL","IN","IS","IT","JO","JP","KW","KZ","LB","LI","LT","LU","LV","MA","MC","MD","ME","MK","MT","MX","MY","NI","NL","NO","NZ","OM","PA","PE","PH","PL","PS","PT","PY","QA","RO","RS","RU","SA","SE","SG","SI","SK","SV","TH","TN","TR","TW","UA","US","UY","VN","XK","ZA"],"external_urls":{"spotify":"https://open.spotify.com/album/1ubczeMvCrPHbSEjgfu4a7"},"href":"https://api.spotify.com/v1/albums/1ubczeMvCrPHbSEjgfu4a7","id":"1ubczeMvCrPHbSEjgfu4a7","images":[{"height":640,"url":"https://i.scdn.co/image/ab67616d0000b27314d3a2a7a92b85a06c93e544","width":640},{"height":300,"url":"https://i.scdn.co/image/ab67616d00001e0214d3a2a7a92b85a06c93e544","width":300},{"height":64,"url":"https://i.scdn.co/image/ab67616d0000485114d3a2a7a92b85a06c93e544","width":64}],"name":"Day69: Graduation Day","release_date":"2018-04-10","release_date_precision":"day","total_tracks":12,"type":"album","uri":"spotify:album:1ubczeMvCrPHbSEjgfu4a7"},"artists":[{"external_urls":{"spotify":"https://open.spotify.com/artist/7gZfnEnfiaHzxARJ2LeXrf"},"href":"https://api.spotify.com/v1/artists/7gZfnEnfiaHzxARJ2LeXrf","id":"7gZfnEnfiaHzxARJ2LeXrf","name":"6ix9ine","type":"artist","uri":"spotify:artist:7gZfnEnfiaHzxARJ2LeXrf"}],"available_markets":["AD","AE","AL","AR","AT","AU","BA","BE","BG","BH","BO","BR","BY","CA","CH","CL","CO","CR","CY","CZ","DE","DK","DO","DZ","EC","EE","EG","ES","FI","FR","GB","GR","GT","HK","HN","HR","HU","ID","IE","IL","IN","IS","IT","JO","JP","KW","KZ","LB","LI","LT","LU","LV","MA","MC","MD","ME","MK","MT","MX","MY","NI","NL","NO","NZ","OM","PA","PE","PH","PL","PS","PT","PY","QA","RO","RS","RU","SA","SE","SG","SI","SK","SV","TH","TN","TR","TW","UA","US","UY","VN","XK","ZA"],"disc_number":1,"duration_ms":112666,"explicit":true,"external_ids":{"isrc":"QMEU31802751"},"external_urls":{"spotify":"https://open.spotify.com/track/5KhFaq45chTw8RGfWo8T8J"},"href":"https://api.spotify.com/v1/tracks/5KhFaq45chTw8RGfWo8T8J","id":"5KhFaq45chTw8RGfWo8T8J","is_local":false,"name":"BILLY","popularity":70,"preview_url":null,"track_number":1,"type":"track","uri":"spotify:track:5KhFaq45chTw8RGfWo8T8J"},{"album":{"album_type":"album","artists":[{"external_urls":{"spotify":"https://open.spotify.com/artist/3PhoLpVuITZKcymswpck5b"},"href":"https://api.spotify.com/v1/artists/3PhoLpVuITZKcymswpck5b","id":"3PhoLpVuITZKcymswpck5b","name":"Elton John","type":"artist","uri":"spotify:artist:3PhoLpVuITZKcymswpck5b"}],"available_markets":["AD","AE","AL","AR","AT","AU","BA","BE","BG","BH","BO","BR","BY","CA","CH","CL","CO","CR","CY","CZ","DE","DK","DO","DZ","EC","EE","EG","ES","FI","FR","GB","GR","GT","HK","HN","HR","HU","ID","IE","IL","IN","IS","IT","JO","JP","KW","KZ","LB","LI","LT","LU","LV","MA","MC","MD","ME","MK","MT","MX","MY","NI","NL","NO","NZ","OM","PA","PE","PH","PL","PS","PT","PY","QA","RO","RS","RU","SA","SE","SG","SI","SK","SV","TH","TN","TR","TW","UA","US","UY","VN","XK","ZA"],"external_urls":{"spotify":"https://open.spotify.com/album/2IrFfPpiIzEEkYoIsIwdQw"},"href":"https://api.spotify.com/v1/albums/2IrFfPpiIzEEkYoIsIwdQw","id":"2IrFfPpiIzEEkYoIsIwdQw","images":[{"height":640,"url":"https://i.scdn.co/image/ab67616d0000b27321e66a71d77140d90e8b12f8","width":640},{"height":300,"url":"https://i.scdn.co/image/ab67616d00001e0221e66a71d77140d90e8b12f8","width":300},{"height":64,"url":"https://i.scdn.co/image/ab67616d0000485121e66a71d77140d90e8b12f8","width":64}],"name":"Jewel Box","release_date":"2020-11-13","release_date_precision":"day","total_tracks":127,"type":"album","uri":"spotify:album:2IrFfPpiIzEEkYoIsIwdQw"},"artists":[{"external_urls":{"spotify":"https://open.spotify.com/artist/3PhoLpVuITZKcymswpck5b"},"href":"https://api.spotify.com/v1/artists/3PhoLpVuITZKcymswpck5b","id":"3PhoLpVuITZKcymswpck5b","name":"Elton John","type":"artist","uri":"spotify:artist:3PhoLpVuITZKcymswpck5b"}],"available_markets":["AD","AE","AL","AR","AT","AU","BA","BE","BG","BH","BO","BR","BY","CA","CH","CL","CO","CR","CY","CZ","DE","DK","DO","DZ","EC","EE","EG","ES","FI","FR","GB","GR","GT","HK","HN","HR","HU","ID","IE","IL","IN","IS","IT","JO","JP","KW","KZ","LB","LI","LT","LU","LV","MA","MC","MD","ME","MK","MT","MX","MY","NI","NL","NO","NZ","OM","PA","PE","PH","PL","PS","PT","PY","QA","RO","RS","RU","SA","SE","SG","SI","SK","SV","TH","TN","TR","TW","UA","US","UY","VN","XK","ZA"],"disc_number":7,"duration_ms":265306,"explicit":false,"external_ids":{"isrc":"GBUM70711154"},"external_urls":{"spotify":"https://open.spotify.com/track/54Ya16gW7SCfDYuXtiRUTd"},"href":"https://api.spotify.com/v1/tracks/54Ya16gW7SCfDYuXtiRUTd","id":"54Ya16gW7SCfDYuXtiRUTd","is_local":false,"name":"Billy And The Kids","popularity":28,"preview_url":null,"track_number":3,"type":"track","uri":"spotify:track:54Ya16gW7SCfDYuXtiRUTd"},{"album":{"album_type":"album","artists":[{"external_urls":{"spotify":"https://open.spotify.com/artist/68DWke2VjdDmA75aJX5C57"},"href":"https://api.spotify.com/v1/artists/68DWke2VjdDmA75aJX5C57","id":"68DWke2VjdDmA75aJX5C57","name":"Yelawolf","type":"artist","uri":"spotify:artist:68DWke2VjdDmA75aJX5C57"}],"available_markets":["AD","AE","AL","AR","AT","AU","BA","BE","BG","BH","BO","BR","BY","CA","CH","CL","CO","CR","CY","CZ","DE","DK","DO","DZ","EC","EE","EG","ES","FI","FR","GB","GR","GT","HK","HN","HR","HU","ID","IE","IL","IN","IS","IT","JO","JP","KW","KZ","LB","LI","LT","LU","LV","MA","MC","MD","ME","MK","MT","MX","MY","NI","NL","NO","NZ","OM","PA","PE","PH","PL","PS","PT","PY","QA","RO","RS","RU","SA","SE","SG","SI","SK","SV","TH","TN","TR","TW","UA","US","UY","VN","XK","ZA"],"external_urls":{"spotify":"https://open.spotify.com/album/6JLpYHnehuGyPxEz79kcaF"},"href":"https://api.spotify.com/v1/albums/6JLpYHnehuGyPxEz79kcaF","id":"6JLpYHnehuGyPxEz79kcaF","images":[{"height":640,"url":"https://i.scdn.co/image/ab67616d0000b2739b62279a02431588835695e9","width":640},{"height":300,"url":"https://i.scdn.co/image/ab67616d00001e029b62279a02431588835695e9","width":300},{"height":64,"url":"https://i.scdn.co/image/ab67616d000048519b62279a02431588835695e9","width":64}],"name":"Trunk Muzik 3","release_date":"2019-03-29","release_date_precision":"day","total_tracks":14,"type":"album","uri":"spotify:album:6JLpYHnehuGyPxEz79kcaF"},"artists":[{"external_urls":{"spotify":"https://open.spotify.com/artist/68DWke2VjdDmA75aJX5C57"},"href":"https://api.spotify.com/v1/artists/68DWke2VjdDmA75aJX5C57","id":"68DWke2VjdDmA75aJX5C57","name":"Yelawolf","type":"artist","uri":"spotify:artist:68DWke2VjdDmA75aJX5C57"}],"available_markets":["AD","AE","AL","AR","AT","AU","BA","BE","BG","BH","BO","BR","BY","CA","CH","CL","CO","CR","CY","CZ","DE","DK","DO","DZ","EC","EE","EG","ES","FI","FR","GB","GR","GT","HK","HN","HR","HU","ID","IE","IL","IN","IS","IT","JO","JP","KW","KZ","LB","LI","LT","LU","LV","MA","MC","MD","ME","MK","MT","MX","MY","NI","NL","NO","NZ","OM","PA","PE","PH","PL","PS","PT","PY","QA","RO","RS","RU","SA","SE","SG","SI","SK","SV","TH","TN","TR","TW","UA","US","UY","VN","XK","ZA"],"disc_number":1,"duration_ms":198413,"explicit":true,"external_ids":{"isrc":"USUYG1242736"},"external_urls":{"spotify":"https://open.spotify.com/track/2mvn2MHPnPJeqgDrZKDnQZ"},"href":"https://api.spotify.com/v1/tracks/2mvn2MHPnPJeqgDrZKDnQZ","id":"2mvn2MHPnPJeqgDrZKDnQZ","is_local":false,"name":"Catfish Billy 2","popularity":60,"preview_url":"https://p.scdn.co/mp3-preview/681b2e6c19f37e5d0bdad70c02a931432743d57b?cid=8a92dfb00bbf41d4a20581983e7627a6","track_number":2,"type":"track","uri":"spotify:track:2mvn2MHPnPJeqgDrZKDnQZ"},{"album":{"album_type":"album","artists":[{"external_urls":{"spotify":"https://open.spotify.com/artist/68DWke2VjdDmA75aJX5C57"},"href":"https://api.spotify.com/v1/artists/68DWke2VjdDmA75aJX5C57","id":"68DWke2VjdDmA75aJX5C57","name":"Yelawolf","type":"artist","uri":"spotify:artist:68DWke2VjdDmA75aJX5C57"}],"available_markets":["AD","AE","AL","AR","AT","AU","BA","BE","BG","BH","BO","BR","BY","CA","CH","CL","CO","CR","CY","CZ","DE","DK","DO","DZ","EC","EE","EG","ES","FI","FR","GB","GR","GT","HK","HN","HR","HU","ID","IE","IL","IN","IS","IT","JO","JP","KW","KZ","LB","LI","LT","LU","LV","MA","MC","MD","ME","MK","MT","MX","MY","NI","NL","NO","NZ","OM","PA","PE","PH","PL","PS","PT","PY","QA","RO","RS","RU","SA","SE","SG","SI","SK","SV","TH","TN","TR","TW","UA","US","UY","VN","XK","ZA"],"external_urls":{"spotify":"https://open.spotify.com/album/0KGoBky6o708TiuT6BCmr1"},"href":"https://api.spotify.com/v1/albums/0KGoBky6o708TiuT6BCmr1","id":"0KGoBky6o708TiuT6BCmr1","images":[{"height":640,"url":"https://i.scdn.co/image/ab67616d0000b2732221daf0f9237ff4b9db4f10","width":640},{"height":300,"url":"https://i.scdn.co/image/ab67616d00001e022221daf0f9237ff4b9db4f10","width":300},{"height":64,"url":"https://i.scdn.co/image/ab67616d000048512221daf0f9237ff4b9db4f10","width":64}],"name":"Trunk Muzik Returns","release_date":"2013-03-29","release_date_precision":"day","total_tracks":10,"type":"album","uri":"spotify:album:0KGoBky6o708TiuT6BCmr1"},"artists":[{"external_urls":{"spotify":"https://open.spotify.com/artist/68DWke2VjdDmA75aJX5C57"},"href":"https://api.spotify.com/v1/artists/68DWke2VjdDmA75aJX5C57","id":"68DWke2VjdDmA75aJX5C57","name":"Yelawolf","type":"artist","uri":"spotify:artist:68DWke2VjdDmA75aJX5C57"}],"available_markets":["AD","AE","AL","AR","AT","AU","BA","BE","BG","BH","BO","BR","BY","CA","CH","CL","CO","CR","CY","CZ","DE","DK","DO","DZ","EC","EE","EG","ES","FI","FR","GB","GR","GT","HK","HN","HR","HU","ID","IE","IL","IN","IS","IT","JO","JP","KW","KZ","LB","LI","LT","LU","LV","MA","MC","MD","ME","MK","MT","MX","MY","NI","NL","NO","NZ","OM","PA","PE","PH","PL","PS","PT","PY","QA","RO","RS","RU","SA","SE","SG","SI","SK","SV","TH","TN","TR","TW","UA","US","UY","VN","XK","ZA"],"disc_number":1,"duration_ms":262173,"explicit":false,"external_ids":{"isrc":"QZGLS1917509"},"external_urls":{"spotify":"https://open.spotify.com/track/3kEly8SN5DxRYjnp21s6YJ"},"href":"https://api.spotify.com/v1/tracks/3kEly8SN5DxRYjnp21s6YJ","id":"3kEly8SN5DxRYjnp21s6YJ","is_local":false,"name":"Catfish Billy","popularity":58,"preview_url":"https://p.scdn.co/mp3-preview/10d6eab614d6d85b34ac829476e66afc13386425?cid=8a92dfb00bbf41d4a20581983e7627a6","track_number":6,"type":"track","uri":"spotify:track:3kEly8SN5DxRYjnp21s6YJ"},{"album":{"album_type":"album","artists":[{"external_urls":{"spotify":"https://open.spotify.com/artist/7LvvNoUPwTZpgXDWBRrfHg"},"href":"https://api.spotify.com/v1/artists/7LvvNoUPwTZpgXDWBRrfHg","id":"7LvvNoUPwTZpgXDWBRrfHg","name":"DRAMA","type":"artist","uri":"spotify:artist:7LvvNoUPwTZpgXDWBRrfHg"}],"available_markets":["AD","AE","AL","AR","AT","AU","BA","BE","BG","BH","BO","BR","BY","CA","CH","CL","CO","CR","CY","CZ","DE","DK","DO","DZ","EC","EE","EG","ES","FI","FR","GB","GR","GT","HK","HN","HR","HU","ID","IE","IL","IN","IS","IT","JO","JP","KW","KZ","LB","LI","LT","LU","LV","MA","MC","MD","ME","MK","MT","MX","MY","NI","NL","NO","NZ","OM","PA","PE","PH","PL","PS","PT","PY","QA","RO","RS","RU","SA","SE","SG","SI","SK","SV","TH","TN","TR","TW","UA","US","UY","VN","XK","ZA"],"external_urls":{"spotify":"https://open.spotify.com/album/744MtN08OGTISO8JUtHk7L"},"href":"https://api.spotify.com/v1/albums/744MtN08OGTISO8JUtHk7L","id":"744MtN08OGTISO8JUtHk7L","images":[{"height":640,"url":"https://i.scdn.co/image/ab67616d0000b27317edb2e80d7686e0185b7554","width":640},{"height":300,"url":"https://i.scdn.co/image/ab67616d00001e0217edb2e80d7686e0185b7554","width":300},{"height":64,"url":"https://i.scdn.co/image/ab67616d0000485117edb2e80d7686e0185b7554","width":64}],"name":"Gallows","release_date":"2016-11-30","release_date_precision":"day","total_tracks":8,"type":"album","uri":"spotify:album:744MtN08OGTISO8JUtHk7L"},"artists":[{"external_urls":{"spotify":"https://open.spotify.com/artist/7LvvNoUPwTZpgXDWBRrfHg"},"href":"https://api.spotify.com/v1/artists/7LvvNoUPwTZpgXDWBRrfHg","id":"7LvvNoUPwTZpgXDWBRrfHg","name":"DRAMA","type":"artist","uri":"spotify:artist:7LvvNoUPwTZpgXDWBRrfHg"}],"available_markets":["AD","AE","AL","AR","AT","AU","BA","BE","BG","BH","BO","BR","BY","CA","CH","CL","CO","CR","CY","CZ","DE","DK","DO","DZ","EC","EE","EG","ES","FI","FR","GB","GR","GT","HK","HN","HR","HU","ID","IE","IL","IN","IS","IT","JO","JP","KW","KZ","LB","LI","LT","LU","LV","MA","MC","MD","ME","MK","MT","MX","MY","NI","NL","NO","NZ","OM","PA","PE","PH","PL","PS","PT","PY","QA","RO","RS","RU","SA","SE","SG","SI","SK","SV","TH","TN","TR","TW","UA","US","UY","VN","XK","ZA"],"disc_number":1,"duration_ms":213716,"explicit":false,"external_ids":{"isrc":"TCACT1677404"},"external_urls":{"spotify":"https://open.spotify.com/track/2eQHAwP1oz4XsjHXSEaqZQ"},"href":"https://api.spotify.com/v1/tracks/2eQHAwP1oz4XsjHXSEaqZQ","id":"2eQHAwP1oz4XsjHXSEaqZQ","is_local":false,"name":"Billy","popularity":62,"preview_url":"https://p.scdn.co/mp3-preview/fa00a7001cb816da1d2b0a9f6afb2c2d03f22feb?cid=8a92dfb00bbf41d4a20581983e7627a6","track_number":4,"type":"track","uri":"spotify:track:2eQHAwP1oz4XsjHXSEaqZQ"},{"album":{"album_type":"compilation","artists":[{"external_urls":{"spotify":"https://open.spotify.com/artist/69Etpls5a2aATUkB6NInTY"},"href":"https://api.spotify.com/v1/artists/69Etpls5a2aATUkB6NInTY","id":"69Etpls5a2aATUkB6NInTY","name":"Neal McCoy","type":"artist","uri":"spotify:artist:69Etpls5a2aATUkB6NInTY"}],"available_markets":["AD","AE","AL","AR","AT","AU","BA","BE","BG","BH","BO","BR","BY","CA","CH","CL","CO","CR","CY","CZ","DE","DK","DO","DZ","EC","EE","EG","ES","FI","FR","GB","GR","GT","HK","HN","HR","HU","ID","IE","IL","IN","IS","IT","JO","JP","KW","KZ","LB","LI","LT","LU","LV","MA","MC","MD","ME","MK","MT","MX","MY","NI","NL","NO","NZ","OM","PA","PE","PH","PL","PS","PT","PY","QA","RO","RS","RU","SA","SE","SG","SI","SK","SV","TH","TN","TR","TW","UA","US","UY","VN","XK","ZA"],"external_urls":{"spotify":"https://open.spotify.com/album/4q0gatM1cvxwlsfOboFbuZ"},"href":"https://api.spotify.com/v1/albums/4q0gatM1cvxwlsfOboFbuZ","id":"4q0gatM1cvxwlsfOboFbuZ","images":[{"height":640,"url":"https://i.scdn.co/image/ab67616d0000b273dae5032fcaea9ee9063fee07","width":640},{"height":300,"url":"https://i.scdn.co/image/ab67616d00001e02dae5032fcaea9ee9063fee07","width":300},{"height":64,"url":"https://i.scdn.co/image/ab67616d00004851dae5032fcaea9ee9063fee07","width":64}],"name":"The Very Best Of Neal McCoy","release_date":"2008-05-30","release_date_precision":"day","total_tracks":20,"type":"album","uri":"spotify:album:4q0gatM1cvxwlsfOboFbuZ"},"artists":[{"external_urls":{"spotify":"https://open.spotify.com/artist/69Etpls5a2aATUkB6NInTY"},"href":"https://api.spotify.com/v1/artists/69Etpls5a2aATUkB6NInTY","id":"69Etpls5a2aATUkB6NInTY","name":"Neal McCoy","type":"artist","uri":"spotify:artist:69Etpls5a2aATUkB6NInTY"}],"available_markets":["AD","AE","AL","AR","AT","AU","BA","BE","BG","BH","BO","BR","BY","CA","CH","CL","CO","CR","CY","CZ","DE","DK","DO","DZ","EC","EE","EG","ES","FI","FR","GB","GR","GT","HK","HN","HR","HU","ID","IE","IL","IN","IS","IT","JO","JP","KW","KZ","LB","LI","LT","LU","LV","MA","MC","MD","ME","MK","MT","MX","MY","NI","NL","NO","NZ","OM","PA","PE","PH","PL","PS","PT","PY","QA","RO","RS","RU","SA","SE","SG","SI","SK","SV","TH","TN","TR","TW","UA","US","UY","VN","XK","ZA"],"disc_number":1,"duration_ms":219026,"explicit":false,"external_ids":{"isrc":"USRHD0803925"},"external_urls":{"spotify":"https://open.spotify.com/track/0v6nJ15ROHRtYWcpLvJCZE"},"href":"https://api.spotify.com/v1/tracks/0v6nJ15ROHRtYWcpLvJCZE","id":"0v6nJ15ROHRtYWcpLvJCZE","is_local":false,"name":"Billy's Got His Beer Goggles On - Remastered Version","popularity":55,"preview_url":"https://p.scdn.co/mp3-preview/6be012d77e84a5ad63d346f996ff113098549d08?cid=8a92dfb00bbf41d4a20581983e7627a6","track_number":20,"type":"track","uri":"spotify:track:0v6nJ15ROHRtYWcpLvJCZE"},{"album":{"album_type":"single","artists":[{"external_urls":{"spotify":"https://open.spotify.com/artist/5IbEL2xjRtKsunfmsahLuO"},"href":"https://api.spotify.com/v1/artists/5IbEL2xjRtKsunfmsahLuO","id":"5IbEL2xjRtKsunfmsahLuO","name":"$NOT","type":"artist","uri":"spotify:artist:5IbEL2xjRtKsunfmsahLuO"}],"available_markets":["AD","AE","AL","AR","AT","AU","BA","BE","BG","BH","BO","BR","BY","CA","CH","CL","CO","CR","CY","CZ","DE","DK","DO","DZ","EC","EE","EG","ES","FI","FR","GB","GR","GT","HK","HN","HR","HU","ID","IE","IL","IN","IS","IT","JO","JP","KW","KZ","LB","LI","LT","LU","LV","MA","MC","MD","ME","MK","MT","MX","MY","NI","NL","NO","NZ","OM","PA","PE","PH","PL","PS","PT","PY","QA","RO","RS","RU","SA","SE","SG","SI","SK","SV","TH","TN","TR","TW","UA","US","UY","VN","XK","ZA"],"external_urls":{"spotify":"https://open.spotify.com/album/1pjcSUYY3bhHQJeD9ZYhHB"},"href":"https://api.spotify.com/v1/albums/1pjcSUYY3bhHQJeD9ZYhHB","id":"1pjcSUYY3bhHQJeD9ZYhHB","images":[{"height":640,"url":"https://i.scdn.co/image/ab67616d0000b2731043a3b137532c27733848ab","width":640},{"height":300,"url":"https://i.scdn.co/image/ab67616d00001e021043a3b137532c27733848ab","width":300},{"height":64,"url":"https://i.scdn.co/image/ab67616d000048511043a3b137532c27733848ab","width":64}],"name":"Billy Boy","release_date":"2019-01-25","release_date_precision":"day","total_tracks":1,"type":"album","uri":"spotify:album:1pjcSUYY3bhHQJeD9ZYhHB"},"artists":[{"external_urls":{"spotify":"https://open.spotify.com/artist/5IbEL2xjRtKsunfmsahLuO"},"href":"https://api.spotify.com/v1/artists/5IbEL2xjRtKsunfmsahLuO","id":"5IbEL2xjRtKsunfmsahLuO","name":"$NOT","type":"artist","uri":"spotify:artist:5IbEL2xjRtKsunfmsahLuO"}],"available_markets":["AD","AE","AL","AR","AT","AU","BA","BE","BG","BH","BO","BR","BY","CA","CH","CL","CO","CR","CY","CZ","DE","DK","DO","DZ","EC","EE","EG","ES","FI","FR","GB","GR","GT","HK","HN","HR","HU","ID","IE","IL","IN","IS","IT","JO","JP","KW","KZ","LB","LI","LT","LU","LV","MA","MC","MD","ME","MK","MT","MX","MY","NI","NL","NO","NZ","OM","PA","PE","PH","PL","PS","PT","PY","QA","RO","RS","RU","SA","SE","SG","SI","SK","SV","TH","TN","TR","TW","UA","US","UY","VN","XK","ZA"],"disc_number":1,"duration_ms":136498,"explicit":true,"external_ids":{"isrc":"QZ8LD1955670"},"external_urls":{"spotify":"https://open.spotify.com/track/59zncIhxSaZdqnOaU0z2cM"},"href":"https://api.spotify.com/v1/tracks/59zncIhxSaZdqnOaU0z2cM","id":"59zncIhxSaZdqnOaU0z2cM","is_local":false,"name":"Billy Boy","popularity":56,"preview_url":"https://p.scdn.co/mp3-preview/e815a78e895ef1fa7c7164090be80f006a8c5def?cid=8a92dfb00bbf41d4a20581983e7627a6","track_number":1,"type":"track","uri":"spotify:track:59zncIhxSaZdqnOaU0z2cM"},{"album":{"album_type":"album","artists":[{"external_urls":{"spotify":"https://open.spotify.com/artist/2OqENqJFXPORP4BUGnu2Qq"},"href":"https://api.spotify.com/v1/artists/2OqENqJFXPORP4BUGnu2Qq","id":"2OqENqJFXPORP4BUGnu2Qq","name":"Youngbloodz","type":"artist","uri":"spotify:artist:2OqENqJFXPORP4BUGnu2Qq"}],"available_markets":["AD","AE","AL","AR","AT","BA","BE","BG","BH","BO","BR","BY","CH","CL","CO","CR","CY","CZ","DE","DK","DO","DZ","EC","EE","EG","ES","FI","FR","GB","GR","GT","HK","HN","HR","HU","ID","IE","IL","IN","IS","IT","JO","JP","KW","KZ","LB","LI","LT","LU","LV","MA","MC","MD","ME","MK","MT","MX","MY","NI","NL","NO","OM","PA","PE","PH","PL","PS","PT","PY","QA","RO","RS","RU","SA","SE","SG","SI","SK","SV","TH","TN","TR","TW","UA","US","UY","VN","XK","ZA"],"external_urls":{"spotify":"https://open.spotify.com/album/4SaEOF2gA8RxMReq2HqAc6"},"href":"https://api.spotify.com/v1/albums/4SaEOF2gA8RxMReq2HqAc6","id":"4SaEOF2gA8RxMReq2HqAc6","images":[{"height":640,"url":"https://i.scdn.co/image/ab67616d0000b2734145f8a1cb5b963e6de6ad89","width":640},{"height":300,"url":"https://i.scdn.co/image/ab67616d00001e024145f8a1cb5b963e6de6ad89","width":300},{"height":64,"url":"https://i.scdn.co/image/ab67616d000048514145f8a1cb5b963e6de6ad89","width":64}],"name":"Against Da Grain","release_date":"1999","release_date_precision":"year","total_tracks":15,"type":"album","uri":"spotify:album:4SaEOF2gA8RxMReq2HqAc6"},"artists":[{"external_urls":{"spotify":"https://open.spotify.com/artist/2OqENqJFXPORP4BUGnu2Qq"},"href":"https://api.spotify.com/v1/artists/2OqENqJFXPORP4BUGnu2Qq","id":"2OqENqJFXPORP4BUGnu2Qq","name":"Youngbloodz","type":"artist","uri":"spotify:artist:2OqENqJFXPORP4BUGnu2Qq"}],"available_markets":["AD","AE","AL","AR","AT","BA","BE","BG","BH","BO","BR","BY","CH","CL","CO","CR","CY","CZ","DE","DK","DO","DZ","EC","EE","EG","ES","FI","FR","GB","GR","GT","HK","HN","HR","HU","ID","IE","IL","IN","IS","IT","JO","JP","KW","KZ","LB","LI","LT","LU","LV","MA","MC","MD","ME","MK","MT","MX","MY","NI","NL","NO","OM","PA","PE","PH","PL","PS","PT","PY","QA","RO","RS","RU","SA","SE","SG","SI","SK","SV","TH","TN","TR","TW","UA","US","UY","VN","XK","ZA"],"disc_number":1,"duration_ms":269693,"explicit":true,"external_ids":{"isrc":"USLF29900212"},"external_urls":{"spotify":"https://open.spotify.com/track/1eYyfFDQJGRhQ55jlbtqrG"},"href":"https://api.spotify.com/v1/tracks/1eYyfFDQJGRhQ55jlbtqrG","id":"1eYyfFDQJGRhQ55jlbtqrG","is_local":false,"name":"85/Billy Dee Interlude","popularity":50,"preview_url":"https://p.scdn.co/mp3-preview/422d2853b66406d09bdc4a256ab91c04fdfbe475?cid=8a92dfb00bbf41d4a20581983e7627a6","track_number":4,"type":"track","uri":"spotify:track:1eYyfFDQJGRhQ55jlbtqrG"},{"album":{"album_type":"album","artists":[{"external_urls":{"spotify":"https://open.spotify.com/artist/5JZ7CnR6gTvEMKX4g70Amv"},"href":"https://api.spotify.com/v1/artists/5JZ7CnR6gTvEMKX4g70Amv","id":"5JZ7CnR6gTvEMKX4g70Amv","name":"Lauv","type":"artist","uri":"spotify:artist:5JZ7CnR6gTvEMKX4g70Amv"}],"available_markets":["AD","AE","AL","AR","AT","AU","BA","BE","BG","BH","BO","BR","BY","CA","CH","CL","CO","CR","CY","CZ","DE","DK","DO","DZ","EC","EE","EG","ES","FI","FR","GB","GR","GT","HK","HN","HR","HU","ID","IE","IL","IN","IS","IT","JO","JP","KW","KZ","LB","LI","LT","LU","LV","MA","MC","MD","ME","MK","MT","MX","MY","NI","NL","NO","NZ","OM","PA","PE","PH","PL","PS","PT","PY","QA","RO","RS","RU","SA","SE","SG","SI","SK","SV","TH","TN","TR","TW","UA","US","UY","VN","XK","ZA"],"external_urls":{"spotify":"https://open.spotify.com/album/6EgJXcGqaUvgZIF9bqPXfP"},"href":"https://api.spotify.com/v1/albums/6EgJXcGqaUvgZIF9bqPXfP","id":"6EgJXcGqaUvgZIF9bqPXfP","images":[{"height":640,"url":"https://i.scdn.co/image/ab67616d0000b2736047672696efe2a146cf309e","width":640},{"height":300,"url":"https://i.scdn.co/image/ab67616d00001e026047672696efe2a146cf309e","width":300},{"height":64,"url":"https://i.scdn.co/image/ab67616d000048516047672696efe2a146cf309e","width":64}],"name":"~how i'm feeling~","release_date":"2020-03-06","release_date_precision":"day","total_tracks":21,"type":"album","uri":"spotify:album:6EgJXcGqaUvgZIF9bqPXfP"},"artists":[{"external_urls":{"spotify":"https://open.spotify.com/artist/5JZ7CnR6gTvEMKX4g70Amv"},"href":"https://api.spotify.com/v1/artists/5JZ7CnR6gTvEMKX4g70Amv","id":"5JZ7CnR6gTvEMKX4g70Amv","name":"Lauv","type":"artist","uri":"spotify:artist:5JZ7CnR6gTvEMKX4g70Amv"}],"available_markets":["AD","AE","AL","AR","AT","AU","BA","BE","BG","BH","BO","BR","BY","CA","CH","CL","CO","CR","CY","CZ","DE","DK","DO","DZ","EC","EE","EG","ES","FI","FR","GB","GR","GT","HK","HN","HR","HU","ID","IE","IL","IN","IS","IT","JO","JP","KW","KZ","LB","LI","LT","LU","LV","MA","MC","MD","ME","MK","MT","MX","MY","NI","NL","NO","NZ","OM","PA","PE","PH","PL","PS","PT","PY","QA","RO","RS","RU","SA","SE","SG","SI","SK","SV","TH","TN","TR","TW","UA","US","UY","VN","XK","ZA"],"disc_number":1,"duration_ms":180293,"explicit":false,"external_ids":{"isrc":"GBKPL1969285"},"external_urls":{"spotify":"https://open.spotify.com/track/5N6lOKp69X4aa61FGvoBTU"},"href":"https://api.spotify.com/v1/tracks/5N6lOKp69X4aa61FGvoBTU","id":"5N6lOKp69X4aa61FGvoBTU","is_local":false,"name":"Billy","popularity":58,"preview_url":"https://p.scdn.co/mp3-preview/00a726864aafe995791a5af295c99ace209ada6f?cid=8a92dfb00bbf41d4a20581983e7627a6","track_number":6,"type":"track","uri":"spotify:track:5N6lOKp69X4aa61FGvoBTU"},{"album":{"album_type":"album","artists":[{"external_urls":{"spotify":"https://open.spotify.com/artist/68DWke2VjdDmA75aJX5C57"},"href":"https://api.spotify.com/v1/artists/68DWke2VjdDmA75aJX5C57","id":"68DWke2VjdDmA75aJX5C57","name":"Yelawolf","type":"artist","uri":"spotify:artist:68DWke2VjdDmA75aJX5C57"}],"available_markets":["AD","AE","AL","AR","AT","AU","BA","BE","BG","BH","BO","BR","BY","CA","CH","CL","CO","CR","CY","CZ","DE","DK","DO","DZ","EC","EE","EG","ES","FI","FR","GB","GR","GT","HK","HN","HR","HU","ID","IE","IL","IN","IS","IT","JO","JP","KW","KZ","LB","LI","LT","LU","LV","MA","MC","MD","ME","MK","MT","MX","MY","NI","NL","NO","NZ","OM","PA","PE","PH","PL","PT","PY","QA","RO","RS","RU","SA","SE","SG","SI","SK","SV","TH","TN","TR","TW","UA","US","UY","VN","XK","ZA"],"external_urls":{"spotify":"https://open.spotify.com/album/6Vg7HgTCyGdcRikqPGhPl4"},"href":"https://api.spotify.com/v1/albums/6Vg7HgTCyGdcRikqPGhPl4","id":"6Vg7HgTCyGdcRikqPGhPl4","images":[{"height":640,"url":"https://i.scdn.co/image/ab67616d0000b27373ea1053732f7b4d773980ec","width":640},{"height":300,"url":"https://i.scdn.co/image/ab67616d00001e0273ea1053732f7b4d773980ec","width":300},{"height":64,"url":"https://i.scdn.co/image/ab67616d0000485173ea1053732f7b4d773980ec","width":64}],"name":"Trunk Muzik 0-60","release_date":"2010-01-01","release_date_precision":"day","total_tracks":12,"type":"album","uri":"spotify:album:6Vg7HgTCyGdcRikqPGhPl4"},"artists":[{"external_urls":{"spotify":"https://open.spotify.com/artist/68DWke2VjdDmA75aJX5C57"},"href":"https://api.spotify.com/v1/artists/68DWke2VjdDmA75aJX5C57","id":"68DWke2VjdDmA75aJX5C57","name":"Yelawolf","type":"artist","uri":"spotify:artist:68DWke2VjdDmA75aJX5C57"},{"external_urls":{"spotify":"https://open.spotify.com/artist/2aq1Srn4VzSQayH4mnyM6v"},"href":"https://api.spotify.com/v1/artists/2aq1Srn4VzSQayH4mnyM6v","id":"2aq1Srn4VzSQayH4mnyM6v","name":"Rock City","type":"artist","uri":"spotify:artist:2aq1Srn4VzSQayH4mnyM6v"}],"available_markets":["AD","AE","AL","AR","AT","AU","BA","BE","BG","BH","BO","BR","BY","CA","CH","CL","CO","CR","CY","CZ","DE","DK","DO","DZ","EC","EE","EG","ES","FI","FR","GB","GR","GT","HK","HN","HR","HU","ID","IE","IL","IN","IS","IT","JO","JP","KW","KZ","LB","LI","LT","LU","LV","MA","MC","MD","ME","MK","MT","MX","MY","NI","NL","NO","NZ","OM","PA","PE","PH","PL","PT","PY","QA","RO","RS","RU","SA","SE","SG","SI","SK","SV","TH","TN","TR","TW","UA","US","UY","VN","XK","ZA"],"disc_number":1,"duration_ms":239973,"explicit":true,"external_ids":{"isrc":"USUM71026118"},"external_urls":{"spotify":"https://open.spotify.com/track/5kteG7fLexn7VkwfEflFT1"},"href":"https://api.spotify.com/v1/tracks/5kteG7fLexn7VkwfEflFT1","id":"5kteG7fLexn7VkwfEflFT1","is_local":false,"name":"Billy Crystal","popularity":50,"preview_url":null,"track_number":5,"type":"track","uri":"spotify:track:5kteG7fLexn7VkwfEflFT1"}],"limit":10,"next":"https://api.spotify.com/v1/search?query=track%3Abilly&type=track&offset=10&limit=10","offset":0,"previous":null,"total":24706}}