{"artists":{"href":"https://api.spotify.com/v1/search?query=artist%3Abilly&type=artist&offset=0&limit=10","items":[{"external_urls":{"spotify":"https://open.spotify.com/artist/6zFYqv1mOsgBRQbae3JJ9e"},"followers":{"href":null,"total":3072086},"genres":["album rock","classic rock","folk rock","mellow gold","piano rock","rock","singer-songwriter","soft rock"],"href":"https://api.spotify.com/v1/artists/6zFYqv1mOsgBRQbae3JJ9e","id":"6zFYqv1mOsgBRQbae3JJ9e","images":[{"height":640,"url":"https://i.scdn.co/image/0488b8c02bc9249ddf858e359dee66f206b1eb4f","width":640},{"height":320,"url":"https://i.scdn.co/image/464553289ce589439605b80d545055a75b41b5f4","width":320},{"height":160,"url":"https://i.scdn.co/image/2aff697bef6a76075e05ab6dd155e91304820aeb","width":160}],"name":"Billy Joel","popularity":79,"type":"artist","uri":"spotify:artist:6zFYqv1mOsgBRQbae3JJ9e"},{"external_urls":{"spotify":"https://open.spotify.com/artist/1By9QBFnjZAoI83BZppHlt"},"followers":{"href":null,"total":1894067},"genres":["contemporary country","country","country road","modern country rock"],"href":"https://api.spotify.com/v1/artists/1By9QBFnjZAoI83BZppHlt","id":"1By9QBFnjZAoI83BZppHlt","images":[{"height":1000,"url":"https://i.scdn.co/image/b54b36596d1511fd262e8e60445689624cd1adca","width":1000},{"height":640,"url":"https://i.scdn.co/image/be4b93a1d60a70626c7767120f1935620e1ca4ad","width":640},{"height":200,"url":"https://i.scdn.co/image/0a0f9e2cb5eb2586e3db412a31a16de94caf0201","width":200},{"height":64,"url":"https://i.scdn.co/image/8e4c7e35c2daae2d08641d9fd26b69cc7ceedfd8","width":64}],"name":"Billy Currington","popularity":69,"type":"artist","uri":"spotify:artist:1By9QBFnjZAoI83BZppHlt"},{"external_urls":{"spotify":"https://open.spotify.com/artist/7lzordPuZEXxwt9aoVZYmG"},"followers":{"href":null,"total":1069143},"genres":["album rock","classic rock","dance rock","hard rock","mellow gold","new romantic","new wave","new wave pop","rock","soft rock","synthpop"],"href":"https://api.spotify.com/v1/artists/7lzordPuZEXxwt9aoVZYmG","id":"7lzordPuZEXxwt9aoVZYmG","images":[{"height":640,"url":"https://i.scdn.co/image/8d07a9712569938da6cd1997de783aa0e38414a4","width":640},{"height":320,"url":"https://i.scdn.co/image/f1f826f7b95632bd97addd193084a539b40c100a","width":320},{"height":160,"url":"https://i.scdn.co/image/8ce909384d578099714604e823d94b1b3dee491b","width":160}],"name":"Billy Idol","popularity":72,"type":"artist","uri":"spotify:artist:7lzordPuZEXxwt9aoVZYmG"},{"external_urls":{"spotify":"https://open.spotify.com/artist/60rpJ9SgigSd16DOAG7GSa"},"followers":{"href":null,"total":176189},"genres":["country","country rock"],"href":"https://api.spotify.com/v1/artists/60rpJ9SgigSd16DOAG7GSa","id":"60rpJ9SgigSd16DOAG7GSa","images":[{"height":640,"url":"https://i.scdn.co/image/6fa7d01488194a3e43169ab45d4bfe7fa5d649fc","width":640},{"height":320,"url":"https://i.scdn.co/image/222e42a6b6a22ab4fd9539b8a4be235cf183d8e1","width":320},{"height":160,"url":"https://i.scdn.co/image/1b1742879aefb303eb38b4ed1e52895f77ca29d3","width":160}],"name":"Billy Ray Cyrus","popularity":71,"type":"artist","uri":"spotify:artist:60rpJ9SgigSd16DOAG7GSa"},{"external_urls":{"spotify":"https://open.spotify.com/artist/3Fz2GbraVXhcpXnoi2Oe1r"},"followers":{"href":null,"total":461025},"genres":["album rock","classic rock","country rock","glam metal","hard rock","heartland rock","mellow gold","rock","soft rock"],"href":"https://api.spotify.com/v1/artists/3Fz2GbraVXhcpXnoi2Oe1r","id":"3Fz2GbraVXhcpXnoi2Oe1r","images":[{"height":1115,"url":"https://i.scdn.co/image/a58dae694e2419439ba72ba5ab95316d53331b19","width":1000},{"height":713,"url":"https://i.scdn.co/image/b41cea376e7970dc32802f0d0a84c22cfedf3e47","width":640},{"height":223,"url":"https://i.scdn.co/image/afe2b8cbddc41953fd7414754f51bd9b91916346","width":200},{"height":71,"url":"https://i.scdn.co/image/c65ef45d2396f3e4706c3e2298ddaeff09c16f10","width":64}],"name":"Billy Squier","popularity":60,"type":"artist","uri":"spotify:artist:3Fz2GbraVXhcpXnoi2Oe1r"},{"external_urls":{"spotify":"https://open.spotify.com/artist/27foDL8SBDLivhZNlDsAza"},"followers":{"href":null,"total":132569},"genres":["meme rap","social media pop","vapor trap"],"href":"https://api.spotify.com/v1/artists/27foDL8SBDLivhZNlDsAza","id":"27foDL8SBDLivhZNlDsAza","images":[{"height":640,"url":"https://i.scdn.co/image/3ac3d2f3a4dfaf8b13045733c3be702916b4b8a7","width":640},{"height":320,"url":"https://i.scdn.co/image/7264a1a6110eb6d552f7ab1264ad452f119ebfcf","width":320},{"height":160,"url":"https://i.scdn.co/image/3a1099ff3e5dd5499d139ddaef84b043de724144","width":160}],"name":"Billy Marchiafava","popularity":63,"type":"artist","uri":"spotify:artist:27foDL8SBDLivhZNlDsAza"},{"external_urls":{"spotify":"https://open.spotify.com/artist/1ZN1c1qWEGZNX1pGeKCPpf"},"followers":{"href":null,"total":100794},"genres":["jam band","jamgrass","new americana","progressive bluegrass"],"href":"https://api.spotify.com/v1/artists/1ZN1c1qWEGZNX1pGeKCPpf","id":"1ZN1c1qWEGZNX1pGeKCPpf","images":[{"height":640,"url":"https://i.scdn.co/image/f65ffc77e97e7b8854c3868a695717ea17eb880f","width":640},{"height":320,"url":"https://i.scdn.co/image/14cfc02ae93a48a8d8616615f08f2cba80e51c7a","width":320},{"height":160,"url":"https://i.scdn.co/image/344dd5f4424eeb1a832841840884e26882a283ec","width":160}],"name":"Billy Strings","popularity":55,"type":"artist","uri":"spotify:artist:1ZN1c1qWEGZNX1pGeKCPpf"},{"external_urls":{"spotify":"https://open.spotify.com/artist/5IDs1CK15HegSAhGEbSYXo"},"followers":{"href":null,"total":607151},"genres":["dance rock","disco","europop","mellow gold","motown","new romantic","new wave pop","soft rock","yacht rock"],"href":"https://api.spotify.com/v1/artists/5IDs1CK15HegSAhGEbSYXo","id":"5IDs1CK15HegSAhGEbSYXo","images":[{"height":640,"url":"https://i.scdn.co/image/c71e40591ecd321eb8226bb16f3ca795e8e8df34","width":640},{"height":320,"url":"https://i.scdn.co/image/bfa3438d2b17080d3fa9d4866010096fe4d9836f","width":320},{"height":160,"url":"https://i.scdn.co/image/5f0c861e249734e14ee59d52d9789533915aa057","width":160}],"name":"Billy Ocean","popularity":66,"type":"artist","uri":"spotify:artist:5IDs1CK15HegSAhGEbSYXo"},{"external_urls":{"spotify":"https://open.spotify.com/artist/08yf5A2nS4XEeNvabDXqyg"},"followers":{"href":null,"total":976323},"genres":["alternative metal","canadian punk","nu metal","pop punk","punk"],"href":"https://api.spotify.com/v1/artists/08yf5A2nS4XEeNvabDXqyg","id":"08yf5A2nS4XEeNvabDXqyg","images":[{"height":640,"url":"https://i.scdn.co/image/0e50d5c9ad58ff82be5ae613307e6510ac5b4595","width":640},{"height":320,"url":"https://i.scdn.co/image/410b29e8302e18a84fa969e7f80acbfb8a40ee82","width":320},{"height":160,"url":"https://i.scdn.co/image/45ca52f9ef9db789156a378b968bd3de97e1ddcc","width":160}],"name":"Billy Talent","popularity":69,"type":"artist","uri":"spotify:artist:08yf5A2nS4XEeNvabDXqyg"},{"external_urls":{"spotify":"https://open.spotify.com/artist/0FVsUxcFSlxwIM7Qs31s6J"},"followers":{"href":null,"total":2250},"genres":["disney"],"href":"https://api.spotify.com/v1/artists/0FVsUxcFSlxwIM7Qs31s6J","id":"0FVsUxcFSlxwIM7Qs31s6J","images":[{"height":640,"url":"https://i.scdn.co/image/69c30f5eb74a1413ec5499ab25237697f5f857d4","width":640},{"height":320,"url":"https://i.scdn.co/image/3e17c7a1107603f6951830dc04b98339a1690eb0","width":320},{"height":160,"url":"https://i.scdn.co/image/3d8ba3aaf200be3c443e5dbbba3a1072c58e746e","width":160}],"name":"Billy Eichner","popularity":58,"type":"artist","uri":"spotify:artist:0FVsUxcFSlxwIM7Qs31s6J"}],"limit":10,"next":"https://api.spotify.com/v1/search?query=artist%3Abilly&type=artist&offset=10&limit=10","offset":0,"previous":null,"total":4626}}