{"albums":{"href":"https://api.spotify.com/v1/search?query=album%3Abilly&type=album&offset=0&limit=10","items":[{"album_type":"compilation","artists":[{"external_urls":{"spotify":"https://open.spotify.com/artist/6zFYqv1mOsgBRQbae3JJ9e"},"href":"https://api.spotify.com/v1/artists/6zFYqv1mOsgBRQbae3JJ9e","id":"6zFYqv1mOsgBRQbae3JJ9e","name":"Billy Joel","type":"artist","uri":"spotify:artist:6zFYqv1mOsgBRQbae3JJ9e"}],"available_markets":["AD","AE","AL","AR","AT","AU","BA","BE","BG","BH","BO","BR","BY","CA","CH","CL","CO","CR","CY","CZ","DE","DK","DO","DZ","EC","EE","EG","ES","FI","FR","GB","GR","GT","HK","HN","HR","HU","ID","IE","IL","IN","IS","IT","JO","JP","KW","KZ","LB","LI","LT","LU","LV","MA","MC","MD","ME","MK","MT","MX","MY","NI","NL","NO","NZ","OM","PA","PE","PH","PL","PS","PT","PY","QA","RO","RS","RU","SA","SE","SG","SI","SK","SV","TH","TN","TR","TW","UA","US","UY","VN","XK","ZA"],"external_urls":{"spotify":"https://open.spotify.com/album/7r36rel1M4gyBavfcJP6Yz"},"href":"https://api.spotify.com/v1/albums/7r36rel1M4gyBavfcJP6Yz","id":"7r36rel1M4gyBavfcJP6Yz","images":[{"height":640,"url":"https://i.scdn.co/image/ab67616d0000b273649d4f282653ab8be56f447e","width":640},{"height":300,"url":"https://i.scdn.co/image/ab67616d00001e02649d4f282653ab8be56f447e","width":300},{"height":64,"url":"https://i.scdn.co/image/ab67616d00004851649d4f282653ab8be56f447e","width":64}],"name":"The Essential Billy Joel","release_date":"2001-10-02","release_date_precision":"day","total_tracks":36,"type":"album","uri":"spotify:album:7r36rel1M4gyBavfcJP6Yz"},{"album_type":"album","artists":[{"external_urls":{"spotify":"https://open.spotify.com/artist/7lzordPuZEXxwt9aoVZYmG"},"href":"https://api.spotify.com/v1/artists/7lzordPuZEXxwt9aoVZYmG","id":"7lzordPuZEXxwt9aoVZYmG","name":"Billy Idol","type":"artist","uri":"spotify:artist:7lzordPuZEXxwt9aoVZYmG"}],"available_markets":["AD","AE","AL","AR","AT","AU","BA","BE","BG","BH","BO","BR","BY","CA","CH","CL","CO","CR","CY","CZ","DE","DK","DO","DZ","EC","EE","EG","ES","FI","FR","GB","GR","GT","HK","HN","HR","HU","ID","IE","IL","IN","IS","IT","JO","JP","KW","KZ","LB","LI","LT","LU","LV","MA","MC","MD","ME","MK","MT","MX","MY","NI","NL","NO","NZ","OM","PA","PE","PH","PL","PS","PT","PY","QA","RO","RS","RU","SA","SE","SG","SI","SK","SV","TH","TN","TR","TW","UA","US","UY","VN","XK","ZA"],"external_urls":{"spotify":"https://open.spotify.com/album/5ebh0MxkqELmk50xHj2b4k"},"href":"https://api.spotify.com/v1/albums/5ebh0MxkqELmk50xHj2b4k","id":"5ebh0MxkqELmk50xHj2b4k","images":[{"height":640,"url":"https://i.scdn.co/image/ab67616d0000b273a20464e6697dc1149d3a5cdc","width":640},{"height":300,"url":"https://i.scdn.co/image/ab67616d00001e02a20464e6697dc1149d3a5cdc","width":300},{"height":64,"url":"https://i.scdn.co/image/ab67616d00004851a20464e6697dc1149d3a5cdc","width":64}],"name":"Billy Idol","release_date":"1982-01-01","release_date_precision":"day","total_tracks":10,"type":"album","uri":"spotify:album:5ebh0MxkqELmk50xHj2b4k"},{"album_type":"compilation","artists":[{"external_urls":{"spotify":"https://open.spotify.com/artist/5IDs1CK15HegSAhGEbSYXo"},"href":"https://api.spotify.com/v1/artists/5IDs1CK15HegSAhGEbSYXo","id":"5IDs1CK15HegSAhGEbSYXo","name":"Billy Ocean","type":"artist","uri":"spotify:artist:5IDs1CK15HegSAhGEbSYXo"}],"available_markets":["AD","AE","AL","AR","AT","AU","BA","BE","BG","BH","BO","BR","BY","CA","CH","CL","CO","CR","CY","CZ","DE","DK","DO","DZ","EC","EE","EG","ES","FI","FR","GB","GR","GT","HK","HN","HR","HU","ID","IE","IL","IN","IS","IT","JO","JP","KW","KZ","LB","LI","LT","LU","LV","MA","MC","MD","ME","MK","MT","MX","MY","NI","NL","NO","NZ","OM","PA","PE","PH","PL","PS","PT","PY","QA","RO","RS","RU","SA","SE","SG","SI","SK","SV","TH","TN","TR","TW","UA","US","UY","VN","XK","ZA"],"external_urls":{"spotify":"https://open.spotify.com/album/7n4OT3zEZaEiyKKd6mFAhi"},"href":"https://api.spotify.com/v1/albums/7n4OT3zEZaEiyKKd6mFAhi","id":"7n4OT3zEZaEiyKKd6mFAhi","images":[{"height":640,"url":"https://i.scdn.co/image/ab67616d0000b27399ee23dac7128cb5754f593c","width":640},{"height":300,"url":"https://i.scdn.co/image/ab67616d00001e0299ee23dac7128cb5754f593c","width":300},{"height":64,"url":"https://i.scdn.co/image/ab67616d0000485199ee23dac7128cb5754f593c","width":64}],"name":"The Very Best of Billy Ocean","release_date":"2010-04-26","release_date_precision":"day","total_tracks":18,"type":"album","uri":"spotify:album:7n4OT3zEZaEiyKKd6mFAhi"},{"album_type":"album","artists":[{"external_urls":{"spotify":"https://open.spotify.com/artist/74ASZWbe4lXaubB36ztrGX"},"href":"https://api.spotify.com/v1/artists/74ASZWbe4lXaubB36ztrGX","id":"74ASZWbe4lXaubB36ztrGX","name":"Bob Dylan","type":"artist","uri":"spotify:artist:74ASZWbe4lXaubB36ztrGX"}],"available_markets":["AD","AE","AL","AR","AT","AU","BA","BE","BG","BH","BO","BR","BY","CA","CH","CL","CO","CR","CY","CZ","DE","DK","DO","DZ","EC","EE","EG","ES","FI","FR","GB","GR","GT","HK","HN","HR","HU","ID","IE","IL","IN","IS","IT","JO","JP","KW","KZ","LB","LI","LT","LU","LV","MA","MC","MD","ME","MK","MT","MX","MY","NI","NL","NO","NZ","OM","PA","PE","PH","PL","PS","PT","PY","QA","RO","RS","RU","SA","SE","SG","SI","SK","SV","TH","TN","TR","TW","UA","US","UY","VN","XK","ZA"],"external_urls":{"spotify":"https://open.spotify.com/album/2Pj2kZM5XpyIeyFBTAVulL"},"href":"https://api.spotify.com/v1/albums/2Pj2kZM5XpyIeyFBTAVulL","id":"2Pj2kZM5XpyIeyFBTAVulL","images":[{"height":640,"url":"https://i.scdn.co/image/ab67616d0000b2736c86683d20c72e3874c11c6d","width":640},{"height":300,"url":"https://i.scdn.co/image/ab67616d00001e026c86683d20c72e3874c11c6d","width":300},{"height":64,"url":"https://i.scdn.co/image/ab67616d000048516c86683d20c72e3874c11c6d","width":64}],"name":"Pat Garrett & Billy The Kid (Soundtrack From The Motion Picture)","release_date":"1973-07-13","release_date_precision":"day","total_tracks":10,"type":"album","uri":"spotify:album:2Pj2kZM5XpyIeyFBTAVulL"},{"album_type":"album","artists":[{"external_urls":{"spotify":"https://open.spotify.com/artist/0T7J61YgErxSH8yuyggHJO"},"href":"https://api.spotify.com/v1/artists/0T7J61YgErxSH8yuyggHJO","id":"0T7J61YgErxSH8yuyggHJO","name":"Stoney LaRue","type":"artist","uri":"spotify:artist:0T7J61YgErxSH8yuyggHJO"}],"available_markets":["AD","AE","AL","AR","AT","AU","BA","BE","BG","BH","BO","BR","BY","CA","CH","CL","CO","CR","CY","CZ","DE","DK","DO","DZ","EC","EE","EG","ES","FI","FR","GB","GR","GT","HK","HN","HR","HU","ID","IE","IL","IN","IS","IT","JO","JP","KW","KZ","LB","LI","LT","LU","LV","MA","MC","MD","ME","MK","MT","MX","MY","NI","NL","NO","NZ","OM","PA","PE","PH","PL","PS","PT","PY","QA","RO","RS","RU","SA","SE","SG","SI","SK","SV","TH","TN","TR","TW","UA","US","UY","VN","XK","ZA"],"external_urls":{"spotify":"https://open.spotify.com/album/6csMrzyN5ZpLcwxBWH9XeQ"},"href":"https://api.spotify.com/v1/albums/6csMrzyN5ZpLcwxBWH9XeQ","id":"6csMrzyN5ZpLcwxBWH9XeQ","images":[{"height":640,"url":"https://i.scdn.co/image/ab67616d0000b273be8ee2d941ebbd762c3e33d7","width":640},{"height":300,"url":"https://i.scdn.co/image/ab67616d00001e02be8ee2d941ebbd762c3e33d7","width":300},{"height":64,"url":"https://i.scdn.co/image/ab67616d00004851be8ee2d941ebbd762c3e33d7","width":64}],"name":"Live at Billy Bob's Texas","release_date":"2007-04-10","release_date_precision":"day","total_tracks":15,"type":"album","uri":"spotify:album:6csMrzyN5ZpLcwxBWH9XeQ"},{"album_type":"album","artists":[{"external_urls":{"spotify":"https://open.spotify.com/artist/08yf5A2nS4XEeNvabDXqyg"},"href":"https://api.spotify.com/v1/artists/08yf5A2nS4XEeNvabDXqyg","id":"08yf5A2nS4XEeNvabDXqyg","name":"Billy Talent","type":"artist","uri":"spotify:artist:08yf5A2nS4XEeNvabDXqyg"}],"available_markets":["AD","AE","AL","AR","AT","AU","BA","BE","BG","BH","BO","BR","BY","CA","CH","CL","CO","CR","CY","CZ","DE","DK","DO","DZ","EC","EE","EG","ES","FI","FR","GR","GT","HK","HN","HR","HU","ID","IL","IN","IS","IT","JO","JP","KW","KZ","LB","LI","LT","LU","LV","MA","MC","MD","ME","MK","MT","MX","MY","NI","NL","NO","NZ","OM","PA","PE","PH","PL","PS","PT","PY","QA","RO","RS","RU","SA","SE","SG","SI","SK","SV","TH","TN","TR","TW","UA","US","UY","VN","XK","ZA"],"external_urls":{"spotify":"https://open.spotify.com/album/0cTOvcvrbNiaiv4WXEUHzT"},"href":"https://api.spotify.com/v1/albums/0cTOvcvrbNiaiv4WXEUHzT","id":"0cTOvcvrbNiaiv4WXEUHzT","images":[{"height":640,"url":"https://i.scdn.co/image/ab67616d0000b27351ad1636a7d0456ad972a71c","width":640},{"height":300,"url":"https://i.scdn.co/image/ab67616d00001e0251ad1636a7d0456ad972a71c","width":300},{"height":64,"url":"https://i.scdn.co/image/ab67616d0000485151ad1636a7d0456ad972a71c","width":64}],"name":"Billy Talent II","release_date":"2006-06-23","release_date_precision":"day","total_tracks":14,"type":"album","uri":"spotify:album:0cTOvcvrbNiaiv4WXEUHzT"},{"album_type":"album","artists":[{"external_urls":{"spotify":"https://open.spotify.com/artist/4fZ8AuVP6Y8mLmCoybfKpC"},"href":"https://api.spotify.com/v1/artists/4fZ8AuVP6Y8mLmCoybfKpC","id":"4fZ8AuVP6Y8mLmCoybfKpC","name":"Adam Calhoun","type":"artist","uri":"spotify:artist:4fZ8AuVP6Y8mLmCoybfKpC"}],"available_markets":["AD","AE","AL","AR","AT","AU","BA","BE","BG","BH","BO","BR","BY","CA","CH","CL","CO","CR","CY","CZ","DE","DK","DO","DZ","EC","EE","EG","ES","FI","FR","GB","GR","GT","HK","HN","HR","HU","ID","IE","IL","IN","IS","IT","JO","JP","KW","KZ","LB","LI","LT","LU","LV","MA","MC","MD","ME","MK","MT","MX","MY","NI","NL","NO","NZ","OM","PA","PE","PH","PL","PS","PT","PY","QA","RO","RS","RU","SA","SE","SG","SI","SK","SV","TH","TN","TR","TW","UA","US","UY","VN","XK","ZA"],"external_urls":{"spotify":"https://open.spotify.com/album/6JvOuN6tPcPHY4FoWQ8J3d"},"href":"https://api.spotify.com/v1/albums/6JvOuN6tPcPHY4FoWQ8J3d","id":"6JvOuN6tPcPHY4FoWQ8J3d","images":[{"height":640,"url":"https://i.scdn.co/image/ab67616d0000b273437472b22ee912edf42b6100","width":640},{"height":300,"url":"https://i.scdn.co/image/ab67616d00001e02437472b22ee912edf42b6100","width":300},{"height":64,"url":"https://i.scdn.co/image/ab67616d00004851437472b22ee912edf42b6100","width":64}],"name":"Billy G.O.A.T.","release_date":"2020-03-24","release_date_precision":"day","total_tracks":11,"type":"album","uri":"spotify:album:6JvOuN6tPcPHY4FoWQ8J3d"},{"album_type":"album","artists":[{"external_urls":{"spotify":"https://open.spotify.com/artist/187xgSpsFH8mMbAcoCW0zE"},"href":"https://api.spotify.com/v1/artists/187xgSpsFH8mMbAcoCW0zE","id":"187xgSpsFH8mMbAcoCW0zE","name":"Billy Paul","type":"artist","uri":"spotify:artist:187xgSpsFH8mMbAcoCW0zE"}],"available_markets":["AD","AE","AL","AR","AT","AU","BA","BE","BG","BH","BO","BR","BY","CA","CH","CL","CO","CR","CY","CZ","DE","DK","DO","DZ","EC","EE","EG","ES","FI","FR","GB","GR","GT","HK","HN","HR","HU","ID","IE","IL","IN","IS","IT","JO","JP","KW","KZ","LB","LI","LT","LU","LV","MA","MC","MD","ME","MK","MT","MX","MY","NI","NL","NO","NZ","OM","PA","PE","PH","PL","PS","PT","PY","QA","RO","RS","RU","SA","SE","SG","SI","SK","SV","TH","TN","TR","TW","UA","US","UY","VN","XK","ZA"],"external_urls":{"spotify":"https://open.spotify.com/album/2t3e2RCx9fmVO7jmhrOm3a"},"href":"https://api.spotify.com/v1/albums/2t3e2RCx9fmVO7jmhrOm3a","id":"2t3e2RCx9fmVO7jmhrOm3a","images":[{"height":640,"url":"https://i.scdn.co/image/ab67616d0000b273c0a60253689c598d83528149","width":640},{"height":300,"url":"https://i.scdn.co/image/ab67616d00001e02c0a60253689c598d83528149","width":300},{"height":64,"url":"https://i.scdn.co/image/ab67616d00004851c0a60253689c598d83528149","width":64}],"name":"360 Degrees of Billy Paul (Expanded Edition)","release_date":"1972-10-25","release_date_precision":"day","total_tracks":11,"type":"album","uri":"spotify:album:2t3e2RCx9fmVO7jmhrOm3a"},{"album_type":"album","artists":[{"external_urls":{"spotify":"https://open.spotify.com/artist/5wbIWUzTPuTxTyG6ouQKqz"},"href":"https://api.spotify.com/v1/artists/5wbIWUzTPuTxTyG6ouQKqz","id":"5wbIWUzTPuTxTyG6ouQKqz","name":"Phish","type":"artist","uri":"spotify:artist:5wbIWUzTPuTxTyG6ouQKqz"}],"available_markets":["AD","AE","AL","AR","AT","AU","BA","BE","BG","BH","BO","BR","BY","CA","CH","CL","CO","CR","CY","CZ","DE","DK","DO","DZ","EC","EE","EG","ES","FI","FR","GB","GR","GT","HK","HN","HR","HU","ID","IE","IL","IN","IS","IT","JO","JP","KW","KZ","LB","LI","LT","LU","LV","MA","MC","MD","ME","MK","MT","MX","MY","NI","NL","NO","NZ","OM","PA","PE","PH","PL","PS","PT","PY","QA","RO","RS","RU","SA","SE","SG","SI","SK","SV","TH","TN","TR","TW","UA","US","UY","VN","XK","ZA"],"external_urls":{"spotify":"https://open.spotify.com/album/4Gesl7yxQQF2taqnoEy3NN"},"href":"https://api.spotify.com/v1/albums/4Gesl7yxQQF2taqnoEy3NN","id":"4Gesl7yxQQF2taqnoEy3NN","images":[{"height":640,"url":"https://i.scdn.co/image/ab67616d0000b2733a89018e10b9f3a9cad2e111","width":640},{"height":300,"url":"https://i.scdn.co/image/ab67616d00001e023a89018e10b9f3a9cad2e111","width":300},{"height":64,"url":"https://i.scdn.co/image/ab67616d000048513a89018e10b9f3a9cad2e111","width":64}],"name":"Billy Breathes","release_date":"1996-10-15","release_date_precision":"day","total_tracks":13,"type":"album","uri":"spotify:album:4Gesl7yxQQF2taqnoEy3NN"},{"album_type":"single","artists":[{"external_urls":{"spotify":"https://open.spotify.com/artist/1ZN1c1qWEGZNX1pGeKCPpf"},"href":"https://api.spotify.com/v1/artists/1ZN1c1qWEGZNX1pGeKCPpf","id":"1ZN1c1qWEGZNX1pGeKCPpf","name":"Billy Strings","type":"artist","uri":"spotify:artist:1ZN1c1qWEGZNX1pGeKCPpf"}],"available_markets":["AD","AE","AL","AR","AT","AU","BA","BE","BG","BH","BO","BR","CA","CH","CL","CO","CR","CY","CZ","DE","DK","DO","DZ","EC","EE","EG","ES","FI","FR","GB","GR","GT","HK","HN","HR","HU","ID","IE","IL","IN","IS","IT","JO","JP","KW","KZ","LB","LI","LT","LU","LV","MA","MC","MD","ME","MK","MT","MX","MY","NI","NL","NO","NZ","OM","PA","PE","PH","PL","PS","PT","PY","QA","RO","RU","SA","SE","SG","SI","SK","SV","TH","TN","TR","TW","UA","US","UY","VN","ZA"],"external_urls":{"spotify":"https://open.spotify.com/album/3YH8rxsSyINBfebMRtbCBf"},"href":"https://api.spotify.com/v1/albums/3YH8rxsSyINBfebMRtbCBf","id":"3YH8rxsSyINBfebMRtbCBf","images":[{"height":640,"url":"https://i.scdn.co/image/ab67616d0000b27388e576ba8eb066866bfacf39","width":640},{"height":300,"url":"https://i.scdn.co/image/ab67616d00001e0288e576ba8eb066866bfacf39","width":300},{"height":64,"url":"https://i.scdn.co/image/ab67616d0000485188e576ba8eb066866bfacf39","width":64}],"name":"Billy Strings - EP","release_date":"2016-06-10","release_date_precision":"day","total_tracks":6,"type":"album","uri":"spotify:album:3YH8rxsSyINBfebMRtbCBf"}],"limit":10,"next":"https://api.spotify.com/v1/search?query=album%3Abilly&type=album&offset=10&limit=10","offset":0,"previous":null,"total":3127}}